0.000000	0.000000
0.100000	0.000000
0.200000	0.535827
0.300000	0.904827
0.400000	0.992115
0.500000	0.770513
0.600000	0.309017
0.700000	-0.248690
0.800000	-0.728969
0.900000	-0.982287
1.000000	-0.929776
1.100000	-0.587785
1.200000	-0.062791
1.300000	0.481754
1.400000	0.876307
1.500000	0.998027
1.600000	0.809017
1.700000	0.368125
1.800000	-0.187381
1.900000	-0.684547
2.000000	-0.968583
2.100000	-0.951057
2.200000	-0.637424
2.300000	-0.125333
2.400000	0.425779
2.500000	0.844328
2.600000	1.000000
2.700000	0.844328
2.800000	0.425779
2.900000	-0.125333
3.000000	-0.637424
3.100000	-0.951057
3.200000	-0.968583
3.300000	-0.684547
3.400000	-0.187381
3.500000	0.368125
3.600000	0.809017
3.700000	0.998027
3.800000	0.876307
3.900000	0.481754
4.000000	-0.062791
4.100000	-0.587785
4.200000	-0.929776
4.300000	-0.982287
4.400000	-0.728969
4.500000	-0.248690
4.600000	0.309017
4.700000	0.770513
4.800000	0.992115
4.900000	0.904827
5.000000	0.535827
5.100000	0.000000
5.200000	-0.535827
5.300000	-0.904827
5.400000	-0.992115
5.500000	-0.770513
5.600000	-0.309017
5.700000	0.248690
5.800000	0.728969
5.900000	0.982287
6.000000	0.929776
6.100000	0.587785
6.200000	0.062791
6.300000	-0.481754
6.400000	-0.876307
6.500000	-0.998027
6.600000	-0.809017
6.700000	-0.368125
6.800000	0.187381
6.900000	0.684547
7.000000	0.968583
7.100000	0.951057
7.200000	0.637424
7.300000	0.125333
7.400000	-0.425779
7.500000	-0.844328
7.600000	-1.000000
7.700000	-0.844328
7.800000	-0.425779
7.900000	0.125333
8.000000	0.637424
8.100000	0.951057
8.200000	0.968583
8.300000	0.684547
8.400000	0.187381
8.500000	-0.368125
8.600000	-0.809017
8.700000	-0.998027
8.800000	-0.876307
8.900000	-0.481754
9.000000	0.062791
9.100000	0.587785
9.200000	0.929776
9.300000	0.982287
9.400000	0.728969
9.500000	0.248690
9.600000	-0.309017
9.700000	-0.770513
9.800000	-0.992115
9.900000	-0.904827
