0.000000	0.000000
0.100000	0.000000
0.200000	0.000000
0.300000	0.000000
0.400000	0.000000
0.500000	0.000000
0.600000	0.000000
0.700000	0.000000
0.800000	0.000000
0.900000	0.000000
1.000000	0.037801
1.100000	0.018361
1.200000	-0.005298
1.300000	-0.000178
1.400000	0.026652
1.500000	0.037339
1.600000	0.015405
1.700000	-0.011061
1.800000	-0.007757
1.900000	0.018361
2.000000	0.028251
2.100000	0.004621
2.200000	-0.023703
2.300000	-0.021096
2.400000	0.005589
2.500000	0.016058
2.600000	-0.007838
2.700000	-0.036508
2.800000	-0.032972
2.900000	-0.004046
3.000000	0.008546
3.100000	-0.014339
3.200000	-0.042317
3.300000	-0.036911
3.400000	-0.004831
3.500000	0.010704
3.600000	-0.010565
3.700000	-0.037498
3.800000	-0.030081
3.900000	0.005087
4.000000	0.023198
4.100000	0.002793
4.200000	-0.024198
4.300000	-0.016108
4.400000	0.020654
4.500000	0.039682
4.600000	0.018311
4.700000	-0.010660
4.800000	-0.003788
4.900000	0.032750
5.000000	0.050902
5.100000	0.026791
5.200000	-0.005788
5.300000	-0.001455
5.400000	0.033868
5.500000	0.050375
5.600000	0.022908
5.700000	-0.013653
5.800000	-0.011849
5.900000	0.022649
6.000000	0.038132
6.100000	0.008083
6.200000	-0.031403
6.300000	-0.030619
6.400000	0.004975
6.500000	0.021505
6.600000	-0.009115
6.700000	-0.049521
6.800000	-0.047580
6.900000	-0.008543
7.000000	0.011305
7.100000	-0.017894
7.200000	-0.057453
7.300000	-0.052657
7.400000	-0.008613
7.500000	0.015675
7.600000	-0.011619
7.700000	-0.050319
7.800000	-0.042808
7.900000	0.005978
8.000000	0.033998
8.100000	0.007220
8.200000	-0.032465
8.300000	-0.024079
8.400000	0.027761
8.500000	0.057655
8.600000	0.029035
8.700000	-0.014348
8.800000	-0.007680
8.900000	0.044951
9.000000	0.074508
9.100000	0.041585
9.200000	-0.008027
9.300000	-0.005168
9.400000	0.046809
9.500000	0.074891
9.600000	0.036482
9.700000	-0.020371
9.800000	-0.021570
9.900000	0.030465
10.000000	0.058278
10.100000	0.015560
10.200000	-0.047247
10.300000	-0.050528
10.400000	0.004390
10.500000	0.035002
10.600000	-0.009336
10.700000	-0.075604
10.800000	-0.077940
10.900000	-0.016402
11.000000	0.020675
11.100000	-0.022496
11.200000	-0.090093
11.300000	-0.089077
11.400000	-0.017962
11.500000	0.028147
11.600000	-0.012698
11.700000	-0.081581
11.800000	-0.077018
11.900000	0.004496
12.000000	0.059963
12.100000	0.019957
12.200000	-0.053195
12.300000	-0.047912
12.400000	0.042104
12.500000	0.104712
12.600000	0.061393
12.700000	-0.021697
12.800000	-0.020727
12.900000	0.074436
13.000000	0.140834
13.100000	0.088679
13.200000	-0.011395
13.300000	-0.020059
13.400000	0.078414
13.500000	0.147869
13.600000	0.083494
13.700000	-0.039571
13.800000	-0.061961
13.900000	0.041436
14.000000	0.119544
14.100000	0.047489
14.200000	-0.096874
14.300000	-0.130562
14.400000	-0.015657
14.500000	0.079409
14.600000	0.004123
14.700000	-0.161287
14.800000	-0.203197
14.900000	-0.065404
15.000000	0.061207
15.100000	-0.010697
15.200000	-0.201048
15.300000	-0.253642
15.400000	-0.081361
15.500000	0.097645
15.600000	0.039637
15.700000	-0.185309
15.800000	-0.262128
15.900000	-0.047702
16.000000	0.211987
16.100000	0.184210
16.200000	-0.096951
16.300000	-0.236390
16.400000	0.017907
16.500000	0.409609
16.600000	0.459361
16.700000	0.086703
16.800000	-0.226006
16.900000	0.006185
17.000000	0.639991
17.100000	1.000000
17.200000	0.636744
17.300000	-0.142341
17.400000	-0.609965
17.500000	-0.429032
17.600000	0.016592
17.700000	0.127400
17.800000	-0.213166
17.900000	-0.572211
18.000000	-0.545676
18.100000	-0.228507
18.200000	-0.028708
18.300000	-0.127606
18.400000	-0.289508
18.500000	-0.218672
18.600000	0.043941
18.700000	0.195541
18.800000	0.083479
18.900000	-0.103572
19.000000	-0.098491
19.100000	0.097063
19.200000	0.235588
19.300000	0.162148
19.400000	0.008059
19.500000	-0.002035
19.600000	0.148056
19.700000	0.257991
19.800000	0.189169
19.900000	0.045506
20.000000	0.022684
20.100000	0.142500
20.200000	0.230384
20.300000	0.155017
20.400000	0.000832
20.500000	-0.051920
20.600000	0.032221
20.700000	0.105748
20.800000	0.042422
20.900000	-0.098072
21.000000	-0.159826
21.100000	-0.101397
21.200000	-0.041143
21.300000	-0.086566
21.400000	-0.188259
21.500000	-0.213996
21.600000	-0.132930
21.700000	-0.055601
21.800000	-0.080040
21.900000	-0.158729
22.000000	-0.166328
22.100000	-0.071125
22.200000	0.024177
22.300000	0.023446
22.400000	-0.035578
22.500000	-0.038451
22.600000	0.047732
22.700000	0.131933
22.800000	0.126002
22.900000	0.063595
23.000000	0.050169
23.100000	0.116702
23.200000	0.178472
23.300000	0.152506
23.400000	0.070570
23.500000	0.034402
23.600000	0.077292
23.700000	0.121486
23.800000	0.086715
23.900000	-0.000609
24.000000	-0.045076
24.100000	-0.012072
24.200000	0.028112
24.300000	-0.000966
24.400000	-0.077784
24.500000	-0.114295
24.600000	-0.076505
24.700000	-0.028459
24.800000	-0.042344
24.900000	-0.100444
25.000000	-0.122161
25.100000	-0.075805
25.200000	-0.020739
25.300000	-0.024352
25.400000	-0.070224
25.500000	-0.082968
25.600000	-0.033041
25.700000	0.023549
25.800000	0.023512
25.900000	-0.017108
26.000000	-0.026862
26.100000	0.021465
26.200000	0.073628
26.300000	0.069373
26.400000	0.025300
26.500000	0.010944
26.600000	0.051980
26.700000	0.094479
26.800000	0.079204
26.900000	0.023344
27.000000	-0.002695
27.100000	0.028661
27.200000	0.065030
27.300000	0.046408
27.400000	-0.012376
27.500000	-0.041630
27.600000	-0.011395
27.700000	0.028578
27.800000	0.017269
27.900000	-0.034775
28.000000	-0.060756
28.100000	-0.029052
28.200000	0.014305
28.300000	0.009094
28.400000	-0.037236
28.500000	-0.060655
28.600000	-0.028331
28.700000	0.017005
28.800000	0.015691
28.900000	-0.028016
29.000000	-0.052613
29.100000	-0.023193
29.200000	0.022030
29.300000	0.024619
29.400000	-0.015069
29.500000	-0.039794
29.600000	-0.013968
29.700000	0.028812
29.800000	0.032631
29.900000	-0.004894
30.000000	-0.030748
30.100000	-0.009323
30.200000	0.030129
30.300000	0.034692
30.400000	-0.000343
30.500000	-0.026632
30.600000	-0.009490
30.700000	0.026033
30.800000	0.031237
30.900000	0.000614
31.000000	-0.022041
31.100000	-0.004671
31.200000	0.029693
31.300000	0.035665
31.400000	0.007626
31.500000	-0.014087
31.600000	0.000260
31.700000	0.029397
31.800000	0.031577
31.900000	0.002480
32.000000	-0.019455
32.100000	-0.006480
32.200000	0.020659
32.300000	0.022067
32.400000	-0.006296
32.500000	-0.027723
32.600000	-0.015681
32.700000	0.010273
32.800000	0.012348
32.900000	-0.013365
33.000000	-0.032441
33.100000	-0.020400
33.200000	0.003751
33.300000	0.004610
33.400000	-0.020240
33.500000	-0.037068
33.600000	-0.022870
33.700000	0.002951
33.800000	0.005676
33.900000	-0.016755
34.000000	-0.031169
34.100000	-0.015116
34.200000	0.012330
34.300000	0.017104
34.400000	-0.003042
34.500000	-0.015976
34.600000	0.000109
34.700000	0.026692
34.800000	0.030677
34.900000	0.009922
35.000000	-0.004238
35.100000	0.009525
35.200000	0.033268
35.300000	0.034792
35.400000	0.012014
35.500000	-0.004463
35.600000	0.006339
35.700000	0.027148
35.800000	0.026656
35.900000	0.002744
36.000000	-0.014843
36.100000	0.000000
36.200000	0.000000
36.300000	0.000000
36.400000	0.000000
36.500000	0.000000
36.600000	0.000000
36.700000	0.000000
36.800000	0.000000
36.900000	0.000000
37.000000	0.000000
37.100000	0.000000
37.200000	0.000000
37.300000	0.000000
37.400000	0.000000
37.500000	0.000000
